simulation/qsim/LogicalStep_Lab4.msim.vcd
$comment
	File created using the following command:
		vcd file LogicalStep_Lab4.msim.vcd -direction
$end
$date
	Tue Mar 26 22:41:40 2024
$end
$version
	ModelSim Version 10.5b
$end
$timescale
	1ps
$end

$scope module logicalstep_lab4_top_vhd_vec_tst $end
$var wire 1 ! blinkout $end
$var wire 1 " clkin_50 $end
$var wire 1 # ewamber $end
$var wire 1 $ ewgreen $end
$var wire 1 % ewred $end
$var wire 1 & leds [7] $end
$var wire 1 ' leds [6] $end
$var wire 1 ( leds [5] $end
$var wire 1 ) leds [4] $end
$var wire 1 * leds [3] $end
$var wire 1 + leds [2] $end
$var wire 1 , leds [1] $end
$var wire 1 - leds [0] $end
$var wire 1 . nsamber $end
$var wire 1 / nsgreen $end
$var wire 1 0 nsred $end
$var wire 1 1 pb_n [3] $end
$var wire 1 2 pb_n [2] $end
$var wire 1 3 pb_n [1] $end
$var wire 1 4 pb_n [0] $end
$var wire 1 5 rst_n $end
$var wire 1 6 seg7_char1 $end
$var wire 1 7 seg7_char2 $end
$var wire 1 8 seg7_data [6] $end
$var wire 1 9 seg7_data [5] $end
$var wire 1 : seg7_data [4] $end
$var wire 1 ; seg7_data [3] $end
$var wire 1 < seg7_data [2] $end
$var wire 1 = seg7_data [1] $end
$var wire 1 > seg7_data [0] $end
$var wire 1 ? smout $end
$var wire 1 @ sw [7] $end
$var wire 1 A sw [6] $end
$var wire 1 B sw [5] $end
$var wire 1 C sw [4] $end
$var wire 1 D sw [3] $end
$var wire 1 E sw [2] $end
$var wire 1 F sw [1] $end
$var wire 1 G sw [0] $end

$scope module i1 $end
$var wire 1 H gnd $end
$var wire 1 I vcc $end
$var wire 1 J unknown $end
$var wire 1 K devoe $end
$var wire 1 L devclrn $end
$var wire 1 M devpor $end
$var wire 1 N ww_devoe $end
$var wire 1 O ww_devclrn $end
$var wire 1 P ww_devpor $end
$var wire 1 Q ww_clkin_50 $end
$var wire 1 R ww_rst_n $end
$var wire 1 S ww_pb_n [3] $end
$var wire 1 T ww_pb_n [2] $end
$var wire 1 U ww_pb_n [1] $end
$var wire 1 V ww_pb_n [0] $end
$var wire 1 W ww_sw [7] $end
$var wire 1 X ww_sw [6] $end
$var wire 1 Y ww_sw [5] $end
$var wire 1 Z ww_sw [4] $end
$var wire 1 [ ww_sw [3] $end
$var wire 1 \ ww_sw [2] $end
$var wire 1 ] ww_sw [1] $end
$var wire 1 ^ ww_sw [0] $end
$var wire 1 _ ww_leds [7] $end
$var wire 1 ` ww_leds [6] $end
$var wire 1 a ww_leds [5] $end
$var wire 1 b ww_leds [4] $end
$var wire 1 c ww_leds [3] $end
$var wire 1 d ww_leds [2] $end
$var wire 1 e ww_leds [1] $end
$var wire 1 f ww_leds [0] $end
$var wire 1 g ww_seg7_data [6] $end
$var wire 1 h ww_seg7_data [5] $end
$var wire 1 i ww_seg7_data [4] $end
$var wire 1 j ww_seg7_data [3] $end
$var wire 1 k ww_seg7_data [2] $end
$var wire 1 l ww_seg7_data [1] $end
$var wire 1 m ww_seg7_data [0] $end
$var wire 1 n ww_seg7_char1 $end
$var wire 1 o ww_seg7_char2 $end
$var wire 1 p ww_smout $end
$var wire 1 q ww_blinkout $end
$var wire 1 r ww_nsgreen $end
$var wire 1 s ww_nsamber $end
$var wire 1 t ww_nsred $end
$var wire 1 u ww_ewgreen $end
$var wire 1 v ww_ewamber $end
$var wire 1 w ww_ewred $end
$var wire 1 x \pb_n[2]~input_o\ $end
$var wire 1 y \pb_n[3]~input_o\ $end
$var wire 1 z \sw[0]~input_o\ $end
$var wire 1 { \sw[1]~input_o\ $end
$var wire 1 | \sw[2]~input_o\ $end
$var wire 1 } \sw[3]~input_o\ $end
$var wire 1 ~ \sw[4]~input_o\ $end
$var wire 1 !! \sw[5]~input_o\ $end
$var wire 1 "! \sw[6]~input_o\ $end
$var wire 1 #! \sw[7]~input_o\ $end
$var wire 1 $! \seg7_data[6]~output_o\ $end
$var wire 1 %! \leds[0]~output_o\ $end
$var wire 1 &! \leds[1]~output_o\ $end
$var wire 1 '! \leds[2]~output_o\ $end
$var wire 1 (! \leds[3]~output_o\ $end
$var wire 1 )! \leds[4]~output_o\ $end
$var wire 1 *! \leds[5]~output_o\ $end
$var wire 1 +! \leds[6]~output_o\ $end
$var wire 1 ,! \leds[7]~output_o\ $end
$var wire 1 -! \seg7_data[0]~output_o\ $end
$var wire 1 .! \seg7_data[1]~output_o\ $end
$var wire 1 /! \seg7_data[2]~output_o\ $end
$var wire 1 0! \seg7_data[3]~output_o\ $end
$var wire 1 1! \seg7_data[4]~output_o\ $end
$var wire 1 2! \seg7_data[5]~output_o\ $end
$var wire 1 3! \seg7_char1~output_o\ $end
$var wire 1 4! \seg7_char2~output_o\ $end
$var wire 1 5! \smout~output_o\ $end
$var wire 1 6! \blinkout~output_o\ $end
$var wire 1 7! \nsgreen~output_o\ $end
$var wire 1 8! \nsamber~output_o\ $end
$var wire 1 9! \nsred~output_o\ $end
$var wire 1 :! \ewgreen~output_o\ $end
$var wire 1 ;! \ewamber~output_o\ $end
$var wire 1 <! \ewred~output_o\ $end
$var wire 1 =! \clkin_50~input_o\ $end
$var wire 1 >! \pb_n[0]~input_o\ $end
$var wire 1 ?! \INST1|pb_n_filtered[0]~0_combout\ $end
$var wire 1 @! \rst_n~input_o\ $end
$var wire 1 A! \INST1|rst_n_filtered~0_combout\ $end
$var wire 1 B! \INST7|remember~0_combout\ $end
$var wire 1 C! \INST7|sreg~q\ $end
$var wire 1 D! \pb_n[1]~input_o\ $end
$var wire 1 E! \INST1|pb_n_filtered[1]~1_combout\ $end
$var wire 1 F! \INST8|remember~0_combout\ $end
$var wire 1 G! \INST8|sreg~q\ $end
$var wire 1 H! \INST3|clk_divider:counter[0]~1_combout\ $end
$var wire 1 I! \INST3|clk_divider:counter[0]~q\ $end
$var wire 1 J! \INST3|clk_divider:counter[0]~2\ $end
$var wire 1 K! \INST3|clk_divider:counter[1]~1_combout\ $end
$var wire 1 L! \INST3|clk_divider:counter[1]~q\ $end
$var wire 1 M! \INST3|clk_divider:counter[1]~2\ $end
$var wire 1 N! \INST3|clk_divider:counter[2]~1_combout\ $end
$var wire 1 O! \INST3|clk_divider:counter[2]~q\ $end
$var wire 1 P! \INST3|clk_divider:counter[2]~2\ $end
$var wire 1 Q! \INST3|clk_divider:counter[3]~1_combout\ $end
$var wire 1 R! \INST3|clk_divider:counter[3]~q\ $end
$var wire 1 S! \INST3|clk_divider:counter[3]~2\ $end
$var wire 1 T! \INST3|clk_divider:counter[4]~1_combout\ $end
$var wire 1 U! \INST3|clk_divider:counter[4]~q\ $end
$var wire 1 V! \INST3|clk_reg_extend~0_combout\ $end
$var wire 1 W! \INST3|clk_reg_extend~1_combout\ $end
$var wire 1 X! \INST3|sm_clken~combout\ $end
$var wire 1 Y! \INST9|current_state~48_combout\ $end
$var wire 1 Z! \INST9|current_state.s15~q\ $end
$var wire 1 [! \INST9|current_state~45_combout\ $end
$var wire 1 \! \INST9|current_state.s0~q\ $end
$var wire 1 ]! \INST9|next_state.s1~0_combout\ $end
$var wire 1 ^! \INST9|current_state~35_combout\ $end
$var wire 1 _! \INST9|current_state.s1~q\ $end
$var wire 1 `! \INST9|next_state.s2~0_combout\ $end
$var wire 1 a! \INST9|current_state.s2~q\ $end
$var wire 1 b! \INST9|current_state~34_combout\ $end
$var wire 1 c! \INST9|current_state.s3~q\ $end
$var wire 1 d! \INST9|current_state~36_combout\ $end
$var wire 1 e! \INST9|current_state.s4~q\ $end
$var wire 1 f! \INST9|current_state~37_combout\ $end
$var wire 1 g! \INST9|current_state.s5~q\ $end
$var wire 1 h! \INST9|Selector2~2_combout\ $end
$var wire 1 i! \INST9|current_state~41_combout\ $end
$var wire 1 j! \INST9|current_state~42_combout\ $end
$var wire 1 k! \INST9|current_state.s6~q\ $end
$var wire 1 l! \INST9|current_state~47_combout\ $end
$var wire 1 m! \INST9|current_state.s7~q\ $end
$var wire 1 n! \INST9|current_state~46_combout\ $end
$var wire 1 o! \INST9|current_state.s8~q\ $end
$var wire 1 p! \INST9|next_state.s9~0_combout\ $end
$var wire 1 q! \INST9|current_state.s9~q\ $end
$var wire 1 r! \INST9|next_state.s10~0_combout\ $end
$var wire 1 s! \INST9|current_state.s10~q\ $end
$var wire 1 t! \INST9|current_state~38_combout\ $end
$var wire 1 u! \INST9|current_state.s11~q\ $end
$var wire 1 v! \INST9|current_state~39_combout\ $end
$var wire 1 w! \INST9|current_state.s12~q\ $end
$var wire 1 x! \INST9|current_state~40_combout\ $end
$var wire 1 y! \INST9|current_state.s13~q\ $end
$var wire 1 z! \INST9|WideOr7~0_combout\ $end
$var wire 1 {! \INST9|current_state~43_combout\ $end
$var wire 1 |! \INST9|current_state~44_combout\ $end
$var wire 1 }! \INST9|current_state.s14~q\ $end
$var wire 1 ~! \INST10|clk_proc:COUNT[0]~0_combout\ $end
$var wire 1 !" \INST10|clk_proc:COUNT[0]~q\ $end
$var wire 1 "" \INST10|clk_proc:COUNT[1]~1_combout\ $end
$var wire 1 #" \INST10|clk_proc:COUNT[1]~q\ $end
$var wire 1 $" \INST10|clk_proc:COUNT[1]~2\ $end
$var wire 1 %" \INST10|clk_proc:COUNT[2]~1_combout\ $end
$var wire 1 &" \INST10|clk_proc:COUNT[2]~q\ $end
$var wire 1 '" \INST10|clk_proc:COUNT[2]~2\ $end
$var wire 1 (" \INST10|clk_proc:COUNT[3]~1_combout\ $end
$var wire 1 )" \INST10|clk_proc:COUNT[3]~q\ $end
$var wire 1 *" \INST10|clk_proc:COUNT[3]~2\ $end
$var wire 1 +" \INST10|clk_proc:COUNT[4]~1_combout\ $end
$var wire 1 ," \INST10|clk_proc:COUNT[4]~q\ $end
$var wire 1 -" \INST10|clk_proc:COUNT[4]~2\ $end
$var wire 1 ." \INST10|clk_proc:COUNT[5]~1_combout\ $end
$var wire 1 /" \INST10|clk_proc:COUNT[5]~q\ $end
$var wire 1 0" \INST10|clk_proc:COUNT[5]~2\ $end
$var wire 1 1" \INST10|clk_proc:COUNT[6]~1_combout\ $end
$var wire 1 2" \INST10|clk_proc:COUNT[6]~q\ $end
$var wire 1 3" \INST10|clk_proc:COUNT[6]~2\ $end
$var wire 1 4" \INST10|clk_proc:COUNT[7]~1_combout\ $end
$var wire 1 5" \INST10|clk_proc:COUNT[7]~q\ $end
$var wire 1 6" \INST10|clk_proc:COUNT[7]~2\ $end
$var wire 1 7" \INST10|clk_proc:COUNT[8]~1_combout\ $end
$var wire 1 8" \INST10|clk_proc:COUNT[8]~q\ $end
$var wire 1 9" \INST10|clk_proc:COUNT[8]~2\ $end
$var wire 1 :" \INST10|clk_proc:COUNT[9]~1_combout\ $end
$var wire 1 ;" \INST10|clk_proc:COUNT[9]~q\ $end
$var wire 1 <" \INST10|clk_proc:COUNT[9]~2\ $end
$var wire 1 =" \INST10|clk_proc:COUNT[10]~1_combout\ $end
$var wire 1 >" \INST10|clk_proc:COUNT[10]~q\ $end
$var wire 1 ?" \INST9|WideOr2~1_combout\ $end
$var wire 1 @" \INST10|DOUT_TEMP[6]~0_combout\ $end
$var wire 1 A" \INST9|WideOr3~combout\ $end
$var wire 1 B" \INST9|WideOr6~0_combout\ $end
$var wire 1 C" \INST9|WideOr9~0_combout\ $end
$var wire 1 D" \INST9|WideOr8~0_combout\ $end
$var wire 1 E" \INST9|WideOr9~combout\ $end
$var wire 1 F" \INST9|WideOr8~1_combout\ $end
$var wire 1 G" \INST9|WideOr8~combout\ $end
$var wire 1 H" \INST9|WideOr2~0_combout\ $end
$var wire 1 I" \INST9|WideOr7~combout\ $end
$var wire 1 J" \INST9|WideOr2~combout\ $end
$var wire 1 K" \INST10|DOUT[0]~0_combout\ $end
$var wire 1 L" \INST3|blink_sig~0_combout\ $end
$var wire 1 M" \INST3|blink_sig~q\ $end
$var wire 1 N" \INST9|Selector2~3_combout\ $end
$var wire 1 O" \INST9|Selector3~2_combout\ $end
$var wire 1 P" \INST10|DOUT[3]~1_combout\ $end
$var wire 1 Q" \INST9|ew_amber~combout\ $end
$var wire 1 R" \INST6|sreg\ [1] $end
$var wire 1 S" \INST6|sreg\ [0] $end
$var wire 1 T" \INST4|sreg\ [1] $end
$var wire 1 U" \INST4|sreg\ [0] $end
$var wire 1 V" \INST5|sreg\ [1] $end
$var wire 1 W" \INST5|sreg\ [0] $end
$var wire 1 X" \INST1|sreg4\ [3] $end
$var wire 1 Y" \INST1|sreg4\ [2] $end
$var wire 1 Z" \INST1|sreg4\ [1] $end
$var wire 1 [" \INST1|sreg4\ [0] $end
$var wire 1 \" \INST3|clk_reg_extend\ [1] $end
$var wire 1 ]" \INST3|clk_reg_extend\ [0] $end
$var wire 1 ^" \INST1|sreg0\ [3] $end
$var wire 1 _" \INST1|sreg0\ [2] $end
$var wire 1 `" \INST1|sreg0\ [1] $end
$var wire 1 a" \INST1|sreg0\ [0] $end
$var wire 1 b" \INST1|sreg1\ [3] $end
$var wire 1 c" \INST1|sreg1\ [2] $end
$var wire 1 d" \INST1|sreg1\ [1] $end
$var wire 1 e" \INST1|sreg1\ [0] $end
$var wire 1 f" \INST9|ALT_INV_WideOr2~combout\ $end
$var wire 1 g" \INST9|ALT_INV_WideOr2~1_combout\ $end
$var wire 1 h" \INST9|ALT_INV_WideOr7~combout\ $end
$var wire 1 i" \INST9|ALT_INV_WideOr8~combout\ $end
$var wire 1 j" \INST9|ALT_INV_WideOr9~combout\ $end
$var wire 1 k" \INST10|ALT_INV_clk_proc:COUNT[10]~q\ $end
$upscope $end
$upscope $end
$enddefinitions $end
#0
$dumpvars
0!
0"
0#
0$
1%
0.
0/
00
05
16
07
0?
0H
1I
xJ
1K
1L
1M
1N
1O
1P
0Q
0R
1n
0o
0p
0q
0r
0s
0t
0u
0v
1w
xx
xy
xz
x{
x|
x}
x~
x!!
x"!
x#!
0$!
0%!
0&!
0'!
0(!
0)!
0*!
0+!
0,!
1-!
0.!
0/!
00!
01!
02!
13!
04!
05!
06!
07!
08!
09!
0:!
0;!
1<!
0=!
1>!
1?!
0@!
1A!
0B!
0C!
1D!
1E!
0F!
0G!
1H!
0I!
0J!
0K!
0L!
1M!
0N!
0O!
0P!
0Q!
0R!
1S!
0T!
0U!
0V!
0W!
0X!
0Y!
0Z!
0[!
0\!
1]!
0^!
0_!
0`!
0a!
0b!
0c!
0d!
0e!
0f!
0g!
0h!
0i!
0j!
0k!
0l!
0m!
0n!
0o!
0p!
0q!
0r!
0s!
0t!
0u!
0v!
0w!
0x!
0y!
1z!
0{!
0|!
0}!
1~!
0!"
0""
0#"
0$"
0%"
0&"
1'"
0("
0)"
0*"
0+"
0,"
1-"
0."
0/"
00"
01"
02"
13"
04"
05"
06"
07"
08"
19"
0:"
0;"
0<"
0="
0>"
1?"
0@"
0A"
0B"
0C"
0D"
1E"
0F"
1G"
0H"
1I"
1J"
1K"
0L"
0M"
0N"
0O"
0P"
0Q"
0f"
0g"
0h"
0i"
0j"
1k"
x@
xA
xB
xC
xD
xE
xF
xG
x1
x2
13
14
xS
xT
1U
1V
xW
xX
xY
xZ
x[
x\
x]
x^
0_
0`
0a
0b
0c
0d
0e
0f
0g
0h
0i
0j
0k
0l
1m
0R"
0S"
0T"
0U"
0V"
0W"
0X"
0Y"
0Z"
0["
0\"
0]"
0^"
0_"
0`"
0a"
0b"
0c"
0d"
0e"
0&
0'
0(
0)
0*
0+
0,
0-
08
09
0:
0;
0<
0=
1>
$end
#10000
1"
1Q
1=!
1a"
1U"
1W"
1e"
1S"
1I!
1!"
0~!
1""
0H!
1J!
1K!
#20000
0"
0Q
0=!
#30000
1"
1Q
1=!
1`"
1T"
1V"
1d"
1R"
0I!
1L!
0!"
1#"
1~!
0K!
0M!
1H!
0J!
1F!
0E!
1B!
1^!
0?!
1K!
1M!
1N!
0N!
#40000
0"
0Q
0=!
#50000
1"
1Q
1=!
1_"
0U"
0W"
1c"
0S"
0L!
1!"
0~!
0""
1$"
0K!
1%"
#60000
0"
0Q
0=!
#70000
1"
1Q
1=!
1^"
0T"
0V"
1b"
0R"
0!"
0#"
1&"
0%"
0'"
1~!
0$"
0F!
0B!
0^!
1%"
1'"
1("
0("
#80000
0"
0Q
0=!
#90000
1"
1Q
1=!
1U"
1I!
1!"
0~!
1""
0H!
1J!
1K!
#100000
0"
0Q
0=!
#110000
1"
1Q
1=!
1T"
0I!
1L!
0!"
1#"
1~!
0K!
0M!
1H!
0J!
1^!
1K!
1M!
1N!
0N!
#120000
0"
0Q
0=!
#130000
1"
1Q
1=!
0U"
0L!
1!"
0~!
0""
1$"
0K!
0%"
0'"
1("
#140000
0"
0Q
0=!
#150000
1"
1Q
1=!
0T"
0!"
0#"
0&"
1)"
0("
1*"
1%"
1'"
1~!
0$"
0^!
0%"
1("
0*"
1+"
0+"
#160000
0"
0Q
0=!
#170000
1"
1Q
1=!
1U"
1I!
1!"
0~!
1""
0H!
1J!
1K!
#180000
0"
0Q
0=!
#190000
1"
1Q
1=!
1T"
0I!
1L!
0!"
1#"
1~!
0K!
0M!
1H!
0J!
1^!
1K!
1M!
1N!
0N!
#200000
0"
0Q
0=!
#210000
1"
1Q
1=!
0U"
0L!
1!"
0~!
0""
1$"
0K!
1%"
#220000
0"
0Q
0=!
#230000
1"
1Q
1=!
0T"
0!"
0#"
1&"
0%"
0'"
1~!
0$"
0^!
1%"
1'"
0("
1*"
1+"
1("
0*"
0+"
#240000
0"
0Q
0=!
#250000
1"
1Q
1=!
1U"
1I!
1!"
0~!
1""
0H!
1J!
1K!
#260000
0"
0Q
0=!
#270000
1"
1Q
1=!
1T"
0I!
1L!
0!"
1#"
1~!
0K!
0M!
1H!
0J!
1^!
1K!
1M!
1N!
0N!
#280000
0"
0Q
0=!
#290000
1"
1Q
1=!
0U"
0L!
1!"
0~!
0""
1$"
0K!
0%"
0'"
0("
1*"
1+"
#300000
0"
0Q
0=!
#310000
1"
1Q
1=!
0T"
0!"
0#"
0&"
0)"
1,"
0+"
0-"
1("
0*"
1%"
1'"
1~!
0$"
0^!
0%"
0("
1+"
1-"
1."
0."
#320000
0"
15
0Q
1R
1@!
0=!
#330000
1"
1Q
1=!
1["
1U"
1I!
1!"
0~!
1""
0H!
1J!
1K!
#340000
0"
0Q
0=!
#350000
1"
1Q
1=!
1Z"
1T"
0I!
1L!
0!"
1#"
1~!
0K!
0M!
1H!
0J!
1^!
0A!
1K!
1M!
1N!
0N!
#360000
0"
0Q
0=!
#370000
1"
1Q
1=!
1Y"
0U"
0L!
1!"
0~!
0""
1$"
0K!
1%"
#380000
0"
0Q
0=!
#390000
1"
1Q
1=!
1X"
0T"
0!"
0#"
1&"
0%"
0'"
1~!
0$"
0^!
1%"
1'"
1("
0("
#400000
0"
0Q
0=!
#410000
1"
1Q
1=!
1I!
1!"
0~!
1""
0H!
1J!
1K!
#420000
0"
0Q
0=!
#430000
1"
1Q
1=!
0I!
1L!
0!"
1#"
1~!
0K!
0M!
1H!
0J!
1K!
1M!
1N!
0N!
#440000
0"
0Q
0=!
#450000
1"
1Q
1=!
1I!
1!"
0~!
0""
1$"
0H!
1J!
0K!
0M!
0%"
0'"
1("
1N!
#460000
0"
0Q
0=!
#470000
1"
1Q
1=!
0I!
0L!
1O!
0!"
0#"
0&"
1)"
0("
1*"
1%"
1'"
1~!
0$"
0N!
1P!
1L"
1K!
1M!
1H!
0J!
0K!
1N!
0P!
1Q!
0%"
1("
0*"
0+"
0-"
1."
1+"
1-"
0Q!
0."
#480000
0"
0Q
0=!
#490000
1"
1Q
1=!
1I!
1!"
1M"
16!
1N"
0~!
1""
0H!
1J!
1q
17!
1K!
1!
1r
1/
#500000
0"
0Q
0=!
#510000
1"
1Q
1=!
0I!
1L!
0!"
1#"
1~!
0K!
0M!
1H!
0J!
1K!
1M!
0N!
1P!
1Q!
1N!
0P!
0Q!
#520000
0"
0Q
0=!
#530000
1"
1Q
1=!
1I!
1!"
0~!
0""
1$"
0H!
1J!
0K!
0M!
1%"
0N!
1P!
1Q!
#540000
0"
0Q
0=!
#550000
1"
1Q
1=!
0I!
0L!
0O!
1R!
0!"
0#"
1&"
0%"
0'"
1~!
0$"
0Q!
0S!
1N!
0P!
0L"
1K!
1M!
1H!
0J!
0K!
0N!
1Q!
1S!
1T!
1%"
1'"
0("
1*"
0+"
0-"
1("
0*"
0T!
1+"
1-"
1."
0."
#560000
0"
0Q
0=!
#570000
1"
1Q
1=!
1I!
1!"
0M"
06!
0N"
0~!
1""
0H!
1J!
0q
07!
1K!
0!
0r
0/
#580000
0"
0Q
0=!
#590000
1"
1Q
1=!
0I!
1L!
0!"
1#"
1~!
0K!
0M!
1H!
0J!
1K!
1M!
1N!
0N!
#600000
0"
0Q
0=!
#610000
1"
1Q
1=!
1I!
1!"
0~!
0""
1$"
0H!
1J!
0K!
0M!
0%"
0'"
0("
1*"
1N!
0+"
0-"
1."
#620000
0"
0Q
0=!
#630000
1"
1Q
1=!
0I!
0L!
1O!
0!"
0#"
0&"
0)"
0,"
1/"
0."
10"
1+"
1-"
1("
0*"
1%"
1'"
1~!
0$"
0N!
1P!
1L"
1K!
1M!
1H!
0J!
0K!
1N!
0P!
0Q!
0S!
0%"
0("
0+"
1."
00"
11"
01"
1T!
1Q!
1S!
0T!
#640000
0"
0Q
0=!
#650000
1"
1Q
1=!
1I!
1!"
1M"
16!
1N"
0~!
1""
0H!
1J!
1q
17!
1K!
1!
1r
1/
#660000
0"
0Q
0=!
#670000
1"
1Q
1=!
0I!
1L!
0!"
1#"
1~!
0K!
0M!
1H!
0J!
1K!
1M!
0N!
1P!
0Q!
0S!
1N!
0P!
1Q!
1S!
1T!
0T!
#680000
0"
0Q
0=!
#690000
1"
1Q
1=!
1I!
1!"
0~!
0""
1$"
0H!
1J!
0K!
0M!
1%"
0N!
1P!
0Q!
0S!
1T!
#700000
0"
0Q
0=!
#710000
1"
1Q
1=!
0I!
0L!
0O!
0R!
1U!
0!"
0#"
1&"
0%"
0'"
1~!
0$"
0T!
1V!
1Q!
1S!
1N!
0P!
0L"
1K!
1M!
1H!
0J!
0K!
0N!
0Q!
1T!
1%"
1'"
1("
0("
#720000
0"
0Q
0=!
#730000
1"
1Q
1=!
1I!
1]"
1!"
0M"
06!
0N"
0~!
1""
1W!
1X!
1^!
0H!
1J!
0q
15!
07!
1K!
1[!
0!
1p
0r
1?
0/
#740000
0"
0Q
0=!
#750000
1"
1Q
1=!
0I!
1L!
1\"
1\!
1_!
0!"
1#"
1~!
1`!
1F"
0]!
1D"
0X!
0^!
0K!
0M!
1H!
0J!
05!
1K!
1M!
1N!
0E"
1j"
0p
0N!
0?
1)!
1b
1)
#760000
0"
0Q
0=!
#770000
1"
1Q
1=!
1I!
1!"
0~!
0""
1$"
0H!
1J!
0K!
0M!
0%"
0'"
1("
1N!
#780000
0"
0Q
0=!
#790000
1"
1Q
1=!
0I!
0L!
1O!
0!"
0#"
0&"
1)"
0("
1*"
1%"
1'"
1~!
0$"
0N!
1P!
1L"
1K!
1M!
1H!
0J!
0K!
1N!
0P!
1Q!
0%"
1("
0*"
1+"
0+"
0Q!
#800000
0"
0Q
0=!
#810000
1"
1Q
1=!
1I!
1!"
1M"
16!
1N"
0~!
1""
0H!
1J!
1q
17!
1K!
1!
1r
1/
#820000
0"
0Q
0=!
#830000
1"
1Q
1=!
0I!
1L!
0!"
1#"
1~!
0K!
0M!
1H!
0J!
1K!
1M!
0N!
1P!
1Q!
1N!
0P!
0Q!
#840000
0"
0Q
0=!
#850000
1"
1Q
1=!
1I!
1!"
0~!
0""
1$"
0H!
1J!
0K!
0M!
1%"
0N!
1P!
1Q!
#860000
0"
0Q
0=!
#870000
1"
1Q
1=!
0I!
0L!
0O!
1R!
0!"
0#"
1&"
0%"
0'"
1~!
0$"
0Q!
0S!
1N!
0P!
0L"
1K!
1M!
1H!
0J!
0K!
0N!
1Q!
1S!
0T!
1%"
1'"
0("
1*"
1+"
1("
0*"
1T!
0+"
#880000
0"
0Q
0=!
#890000
1"
1Q
1=!
1I!
1!"
0M"
06!
0N"
0~!
1""
0H!
1J!
0q
07!
1K!
0!
0r
0/
#900000
0"
0Q
0=!
#910000
1"
1Q
1=!
0I!
1L!
0!"
1#"
1~!
0K!
0M!
1H!
0J!
1K!
1M!
1N!
0N!
#920000
0"
0Q
0=!
#930000
1"
1Q
1=!
1I!
1!"
0~!
0""
1$"
0H!
1J!
0K!
0M!
0%"
0'"
0("
1*"
1N!
1+"
#940000
0"
0Q
0=!
#950000
1"
1Q
1=!
0I!
0L!
1O!
0!"
0#"
0&"
0)"
1,"
0+"
0-"
1("
0*"
1%"
1'"
1~!
0$"
0N!
1P!
1L"
1K!
1M!
1H!
0J!
0K!
1N!
0P!
0Q!
0S!
0%"
0("
1+"
1-"
0."
10"
11"
1."
00"
0T!
1Q!
1S!
1T!
01"
#960000
0"
0Q
0=!
#970000
1"
1Q
1=!
1I!
1!"
1M"
16!
1N"
0~!
1""
0H!
1J!
1q
17!
1K!
1!
1r
1/
#980000
0"
0Q
0=!
#990000
1"
1Q
1=!
0I!
1L!
0!"
1#"
1~!
0K!
0M!
1H!
0J!
1K!
1M!
0N!
1P!
0Q!
0S!
1N!
0P!
1Q!
1S!
0T!
1T!
#1000000
0"
0Q
0=!
#1010000
1"
1Q
1=!
1I!
1!"
0~!
0""
1$"
0H!
1J!
0K!
0M!
1%"
0N!
1P!
0Q!
0S!
0T!
#1020000
0"
0Q
0=!
#1030000
1"
1Q
1=!
0I!
0L!
0O!
0R!
0U!
0!"
0#"
1&"
0%"
0'"
1~!
0$"
1T!
0V!
1Q!
1S!
1N!
0P!
0L"
1K!
1M!
1H!
0J!
0K!
0N!
0Q!
0T!
1%"
1'"
1("
0("
#1040000
0"
0Q
0=!
#1050000
1"
1Q
1=!
1I!
0]"
1!"
0M"
06!
0N"
0~!
1""
0W!
0H!
1J!
0q
07!
1K!
0!
0r
0/
#1060000
0"
0Q
0=!
#1070000
1"
1Q
1=!
0I!
1L!
0\"
0!"
1#"
1~!
0K!
0M!
1H!
0J!
1K!
1M!
1N!
0N!
#1080000
0"
0Q
0=!
#1090000
1"
1Q
1=!
1I!
1!"
0~!
0""
1$"
0H!
1J!
0K!
0M!
0%"
0'"
1("
1N!
#1100000
0"
0Q
0=!
#1110000
1"
1Q
1=!
0I!
0L!
1O!
0!"
0#"
0&"
1)"
0("
1*"
1%"
1'"
1~!
0$"
0N!
1P!
1L"
1K!
1M!
1H!
0J!
0K!
1N!
0P!
1Q!
0%"
1("
0*"
0+"
0-"
0."
10"
1+"
1-"
0Q!
1."
00"
11"
01"
#1120000
0"
0Q
0=!
#1130000
1"
1Q
1=!
1I!
1!"
1M"
16!
1N"
0~!
1""
0H!
1J!
1q
17!
1K!
1!
1r
1/
#1140000
0"
0Q
0=!
#1150000
1"
1Q
1=!
0I!
1L!
0!"
1#"
1~!
0K!
0M!
1H!
0J!
1K!
1M!
0N!
1P!
1Q!
1N!
0P!
0Q!
#1160000
0"
0Q
0=!
#1170000
1"
1Q
1=!
1I!
1!"
0~!
0""
1$"
0H!
1J!
0K!
0M!
1%"
0N!
1P!
1Q!
#1180000
0"
0Q
0=!
#1190000
1"
1Q
1=!
0I!
0L!
0O!
1R!
0!"
0#"
1&"
0%"
0'"
1~!
0$"
0Q!
0S!
1N!
0P!
0L"
1K!
1M!
1H!
0J!
0K!
0N!
1Q!
1S!
1T!
1%"
1'"
0("
1*"
0+"
0-"
1("
0*"
0T!
1+"
1-"
0."
10"
11"
1."
00"
01"
#1200000
0"
0Q
0=!
#1210000
1"
1Q
1=!
1I!
1!"
0M"
06!
0N"
0~!
1""
0H!
1J!
0q
07!
1K!
0!
0r
0/
#1220000
0"
0Q
0=!
#1230000
1"
1Q
1=!
0I!
1L!
0!"
1#"
1~!
0K!
0M!
1H!
0J!
1K!
1M!
1N!
0N!
#1240000
0"
0Q
0=!
#1250000
1"
1Q
1=!
1I!
1!"
0~!
0""
1$"
0H!
1J!
0K!
0M!
0%"
0'"
0("
1*"
1N!
0+"
0-"
0."
10"
11"
#1260000
0"
0Q
0=!
#1270000
1"
1Q
1=!
0I!
0L!
1O!
0!"
0#"
0&"
0)"
0,"
0/"
12"
01"
03"
1."
00"
1+"
1-"
1("
0*"
1%"
1'"
1~!
0$"
0N!
1P!
1L"
1K!
1M!
1H!
0J!
0K!
1N!
0P!
0Q!
0S!
0%"
0("
0+"
0."
11"
13"
14"
04"
1T!
1Q!
1S!
0T!
#1280000
0"
0Q
0=!
#1290000
1"
1Q
1=!
1I!
1!"
1M"
16!
1N"
0~!
1""
0H!
1J!
1q
17!
1K!
1!
1r
1/
#1300000
0"
0Q
0=!
#1310000
1"
1Q
1=!
0I!
1L!
0!"
1#"
1~!
0K!
0M!
1H!
0J!
1K!
1M!
0N!
1P!
0Q!
0S!
1N!
0P!
1Q!
1S!
1T!
0T!
#1320000
0"
0Q
0=!
#1330000
1"
1Q
1=!
1I!
1!"
0~!
0""
1$"
0H!
1J!
0K!
0M!
1%"
0N!
1P!
0Q!
0S!
1T!
#1340000
0"
0Q
0=!
#1350000
1"
1Q
1=!
0I!
0L!
0O!
0R!
1U!
0!"
0#"
1&"
0%"
0'"
1~!
0$"
0T!
1V!
1Q!
1S!
1N!
0P!
0L"
1K!
1M!
1H!
0J!
0K!
0N!
0Q!
1T!
1%"
1'"
1("
0("
#1360000
0"
0Q
0=!
#1370000
1"
1Q
1=!
1I!
1]"
1!"
0M"
06!
0N"
0~!
1""
1W!
1X!
1^!
0H!
1J!
0q
15!
07!
1K!
0!
1p
0r
1?
0/
#1380000
0"
0Q
0=!
